{
  "defaultSeverity": "error",
  "extends": ["tslint:latest", "tslint-config-prettier"],
  "jsRules": {},
  "rules": {
    "no-debugger": false,
    "no-console": false,
    "ordered-imports": false,
    "object-literal-sort-keys": false,
    "interface-name": [true, "never-prefix"],
    "no-implicit-dependencies": [true, "dev"],
    "no-var-requires": false,
    "no-submodule-imports": false
  },
  "rulesDirectory": []
}
