// Jest Snapshot v1, https://goo.gl/fbAQLP

exports[`createJWT() creates a JWT with correct format 1`] = `
Object {
  "data": "eyJ0eXAiOiJKV1QiLCJhbGciOiJFUzI1NksifQ.eyJleHAiOjEsImlhdCI6MTUzMjcyODg1MCwicmVxdWVzdGVkIjpbIm5hbWUiLCJwaG9uZSJdLCJpc3MiOiJkaWQ6bGlmZToxMTIzNDFkMmU3YzAzZTQxZTVjZDA5NTAzZGZiNzc2MzU2YzhjNDRjMjQzNjcwZThmZiJ9",
  "header": Object {
    "alg": "ES256K",
    "typ": "JWT",
  },
  "payload": Object {
    "exp": 1,
    "iat": 1532728850,
    "iss": "did:life:112341d2e7c03e41e5cd09503dfb776356c8c44c243670e8ff",
    "requested": Array [
      "name",
      "phone",
    ],
  },
  "signature": "zfGvPCNeVx5HTYeV97Mb7Q3KhgUsAI3PZN43KVj_DIpzisnWcrRAYbAPLzhB7hK0GgTfqkuKfvk36nRZF566cw",
}
`;
